tidymodels workshop - Tuning models
…
This is a type of space-filling design.

It tends to do much better than random grids and is (usually) more efficient than regular grids.

set.seed(2)
grid <- 
  alz_wflow %>% 
  extract_parameter_set_dials() %>% 
  grid_latin_hypercube(size = 25)

grid
#> # A tibble: 25 × 3
#>          penalty mixture genotype_threshold
#>            <dbl>   <dbl>              <dbl>
#>  1 0.124           0.309            0.00472
#>  2 0.0000000474    0.269            0.0272 
#>  3 0.0000000101    0.810            0.0205 
#>  4 0.0000140       0.527            0.0695 
#>  5 0.172           0.897            0.0160 
#>  6 0.0000329       0.701            0.0128 
#>  7 0.00000000610   0.590            0.0831 
#>  8 0.0141          0.102            0.0368 
#>  9 0.00513         0.405            0.0863 
#> 10 0.000667        0.145            0.00113
#> # … with 15 more rows
…
collect_metrics(lr_pen_res)
#> # A tibble: 50 × 9
#>         penalty mixture genotype_thresho… .metric .estimator  mean     n std_err
#>           <dbl>   <dbl>             <dbl> <chr>   <chr>      <dbl> <int>   <dbl>
#>  1 0.124          0.309           0.00472 accura… binary     0.856    10 0.0109 
#>  2 0.124          0.309           0.00472 roc_auc binary     0.903    10 0.0207 
#>  3 0.0000000474   0.269           0.0272  accura… binary     0.872    10 0.0141 
#>  4 0.0000000474   0.269           0.0272  roc_auc binary     0.902    10 0.0189 
#>  5 0.0000000101   0.810           0.0205  accura… binary     0.883    10 0.0114 
#>  6 0.0000000101   0.810           0.0205  roc_auc binary     0.905    10 0.0177 
#>  7 0.0000140      0.527           0.0695  accura… binary     0.872    10 0.0122 
#>  8 0.0000140      0.527           0.0695  roc_auc binary     0.900    10 0.0188 
#>  9 0.172          0.897           0.0160  accura… binary     0.728    10 0.00247
#> 10 0.172          0.897           0.0160  roc_auc binary     0.832    10 0.0207 
#> # … with 40 more rows, and 1 more variable: .config <chr>
…
collect_metrics(lr_pen_res, summarize = FALSE)
#> # A tibble: 500 × 8
#>    id     penalty mixture genotype_thresho… .metric .estimator .estimate .config
#>    <chr>    <dbl>   <dbl>             <dbl> <chr>   <chr>          <dbl> <chr>  
#>  1 Fold01   0.124   0.309           0.00472 accura… binary         0.839 Prepro…
#>  2 Fold01   0.124   0.309           0.00472 roc_auc binary         0.934 Prepro…
#>  3 Fold02   0.124   0.309           0.00472 accura… binary         0.833 Prepro…
#>  4 Fold02   0.124   0.309           0.00472 roc_auc binary         0.938 Prepro…
#>  5 Fold03   0.124   0.309           0.00472 accura… binary         0.9   Prepro…
#>  6 Fold03   0.124   0.309           0.00472 roc_auc binary         0.989 Prepro…
#>  7 Fold04   0.124   0.309           0.00472 accura… binary         0.8   Prepro…
#>  8 Fold04   0.124   0.309           0.00472 roc_auc binary         0.875 Prepro…
#>  9 Fold05   0.124   0.309           0.00472 accura… binary         0.867 Prepro…
#> 10 Fold05   0.124   0.309           0.00472 roc_auc binary         0.795 Prepro…
#> # … with 490 more rows
…
